…
``` r
tidy(my_lm)
```

    ## # A tibble: 2 x 5
    ##   term           estimate std.error statistic  p.value
    ##   <chr>             <dbl>     <dbl>     <dbl>    <dbl>
    ## 1 (Intercept)       -9.10     1.23      -7.41 1.93e-13
    ## 2 log(gdpPercap)     8.41     0.149     56.5  0.

``` r
augment(my_lm)
```

    ## # A tibble: 1,704 x 9
    ##    lifeExp log.gdpPercap. .fitted .se.fit .resid    .hat .sigma .cooksd
    ##  *   <dbl>          <dbl>   <dbl>   <dbl>  <dbl>   <dbl>  <dbl>   <dbl>
    ##  1    28.8           6.66    46.9   0.290 -18.1  0.00144   7.61 4.07e-3
    ##  2    30.3           6.71    47.3   0.284 -17.0  0.00139   7.61 3.45e-3
    ##  3    32.0           6.75    47.6   0.279 -15.6  0.00134   7.61 2.84e-3
    ##  4    34.0           6.73    47.5   0.282 -13.4  0.00137   7.61 2.13e-3
    ##  5    36.1           6.61    46.4   0.296 -10.3  0.00151   7.62 1.39e-3
    ##  6    38.4           6.67    46.9   0.289  -8.50 0.00144   7.62 8.95e-4
    ##  7    39.9           6.89    48.8   0.264  -8.92 0.00120   7.62 8.27e-4
    ##  8    40.8           6.75    47.6   0.279  -6.80 0.00135   7.62 5.36e-4
    ##  9    41.7           6.48    45.3   0.311  -3.66 0.00167   7.62 1.92e-4
    ## 10    41.8           6.45    45.1   0.314  -3.38 0.00169   7.62 1.68e-4
    ## # ... with 1,694 more rows, and 1 more variable: .std.resid <dbl>
…
